{
    "crosswalk": {
        "compliance": [387, 7, 1, 3, 4],
        "cross_slope": [399, 1, 0, 1, 1, 0, 0],
        "width": [387, 6, 1, 2, 2, 1, 3]
    },
    "curb_ramp": {
        "approach_cross_slope": [582, 451, 122, 38, 5, 6, 56],
        "compliance": [352, 387, 277, 142, 102],
        "condition": [420, 176, 370, 131, 163],
        "cracked_panel_count": [999, 206, 48, 6, 1],
        "detectable_warning_type": [299, 405, 30, 308, 218],
        "detectable_warning_width": [485, 89, 101, 32, 27, 308, 218],
        "flare_slope": [12, 2, 3, 3, 5, 10, 1225],
        "gutter_cross_slope": [773, 209, 52, 7, 1, 0, 218],
        "gutter_running_slope": [772, 116, 72, 44, 19, 19, 218],
        "landing_dimensions": [565, 68, 41, 2, 1, 0, 56, 527],
        "landing_slope": [269, 259, 97, 33, 14, 5, 56, 527],
        "largest_vertical_fault": [411, 427, 422],
        "obstruction": [1084, 176],
        "ramp_cross_slope": [745, 346, 114, 38, 12, 5],
        "ramp_running_slope": [948, 60, 60, 125, 67],
        "ramp_width": [1107, 90, 42, 12, 7, 2],
        "surface_condition": [693, 5, 32, 128, 377, 25],
        "vertical_fault_count": [409, 331, 269, 163, 88]
    },
    "pedestrian_signal": {
        "button_height": [0, 0, 0, 58, 6, 0, 0, 0],
        "button_position_appearance": [12, 62, 41, 35, 0],
        "button_size": [19, 26, 19, 0],
        "compliance": [0, 0, 2, 1, 61],
        "tactile_features": [3, 2]
    },
    "sidewalk": {
        "compliance": [2.1, 6.7, 21.4, 22.1, 8.4],
        "condition": [5.9, 2.9, 8.9, 6.3, 36.8],
        "cracked_panel_count": [11.0, 10.5, 9.1, 9.2, 21.1],
        "largest_vertical_fault": [2.5, 8.6, 49.7],
        "max_cross_slope": [33.0, 20.6, 5.6, 0.9, 0.4, 0.2],
        "obstruction_types": [59.9, 0.9, 0],
        "surface_condition": [25.0, 0.1, 5.2, 3.1, 15.2, 12.2],
        "vertical_fault_count": [9.7, 11.6, 7.1, 10.7, 21.6],
        "width": [45.7, 5.4, 4.4, 3.0, 1.6, 0.6]
    }
}
