{
  "crosswalk": {
    "compliance": [13, 0, 0, 0, 0],
    "cross_slope": [13, 0, 0, 0, 0, 0, 0],
    "width": [13, 0, 0, 0, 0, 0, 0]
  },
  "curb_ramp": {
    "approach_cross_slope": [83, 66, 9, 0, 0, 0, 2],
    "compliance": [56, 60, 32, 9, 3],
    "condition": [88, 15, 42, 8, 7],
    "cracked_panel_count": [142, 14, 3, 1, 0],
    "detectable_warning_type": [64, 84, 0, 12, 0],
    "detectable_warning_width": [64, 46, 21, 8, 9, 12, 0],
    "flare_slope": [0, 0, 0, 0, 0, 0, 160],
    "gutter_cross_slope": [95, 54, 11, 0, 0, 0, 0],
    "gutter_running_slope": [117, 13, 17, 7, 3, 3, 0],
    "landing_dimensions": [53, 9, 0, 0, 0, 0, 9, 89],
    "landing_slope": [19, 35, 8, 0, 0, 0, 9, 89],
    "largest_vertical_fault": [96, 51, 13],
    "obstruction": [125, 35],
    "ramp_cross_slope": [83, 48, 26, 3, 0, 0],
    "ramp_running_slope": [147, 3, 6, 3, 1],
    "ramp_width": [145, 9, 5, 0, 1, 0],
    "surface_condition": [106, 0, 1, 3, 49, 1],
    "vertical_fault_count": [96, 37, 19, 6, 2]
  },
  "pedestrian_signal": {
    "button_height": [0, 0, 0, 3, 0, 0, 0, 0],
    "button_position_appearance": [2, 3, 0, 0, 0],
    "button_size": [0, 0, 3, 0],
    "compliance": [0, 0, 0, 0, 3],
    "tactile_features": [0, 0]
  },
  "sidewalk": {
    "compliance": [0.5, 3.1, 2.8, 4.4, 0.5],
    "condition": [3.3, 0.8, 2.3, 1.0, 3.9],
    "cracked_panel_count": [4.4, 1.8, 1.1, 1.1, 2.8],
    "largest_vertical_fault": [0.5, 3.4, 7.3],
    "max_cross_slope": [6.9, 3.8, 0.5, 0.1, 0, 0],
    "obstruction_types": [11.3, 0, 0],
    "surface_condition": [8.3, 0, 0.6, 0.2, 2.1, 0.1],
    "vertical_fault_count": [3.3, 2.5, 1.4, 1.9, 2.2],
    "width": [9.1, 1.2, 0.6, 0.2, 0.1, 0.0]
  }
}
